{
  "posts": [
    {
      "id": 1,
      "title": "json-server",
      "author": "typicode"
    }
  ],
  "comments": [
    {
      "id": 1,
      "body": "some comment",
      "postId": 1
    }
  ],
  "profile": {
    "name": "typicode"
  },
  "Bebidas": {
    "Bebida": "Jesus",
    "Volume": "2",
    "Preco": "35.00",
    "img": "https://i0.wp.com/interfacecomunicacao.com.br/wp-content/uploads/2016/05/Guarana-Jesus.jpg?ssl=1"
  },
  "pizza": {
    "name": "typicode"
  }
}